Network Graph Assignment
…
Hide All Code

Network Graph Assignment

library(tidyverse)
library(igraph)
library(circlize)

task 1

migrations=readxl::read_xls('data/State_to_State_Migrations_Table_2018.xls', skip=4)
migrations

## # A tibble: 81 x 130
##    `Current reside~ `Population 1 y~ ...3  `Same house 1 y~ ...5 
##    <chr>            <chr>            <chr> <chr>            <chr>
##  1 <NA>             <NA>             <NA>  <NA>             <NA> 
##  2 <NA>             Estimate         MOE   Estimate         MOE  
##  3 <NA>             <NA>             <NA>  <NA>             <NA> 
##  4 United States2   323531965        28863 278079469        1918~
##  5 <NA>             <NA>             <NA>  <NA>             <NA> 
##  6 Alabama          4832358          3328  4173026          19530
##  7 Alaska           727164           1214  608707           7474 
##  8 Arizona          7090137          4507  5887700          28309
##  9 Arkansas         2975961          3093  2539294          19535
## 10 California       39114889         11156 34232867         55636
## # ... with 71 more rows, and 125 more variables: `Same state of residence 1
## #   year ago` <chr>, ...7 <chr>, `Different state of residence 1 year
## #   ago` <chr>, ...9 <chr>, ...10 <chr>, ...11 <chr>, `Current residence
## #   in...12` <chr>, `Different state of residence 1 year ago
## #   (continued)...13` <chr>, ...14 <chr>, ...15 <chr>, ...16 <chr>,
## #   ...17 <chr>, ...18 <chr>, ...19 <chr>, ...20 <chr>, ...21 <chr>,
## #   ...22 <chr>, `Current residence in...23` <chr>, `Different state of
## #   residence 1 year ago (continued)...24` <chr>, ...25 <chr>, ...26 <chr>,
## #   ...27 <chr>, ...28 <chr>, ...29 <chr>, ...30 <chr>, ...31 <chr>,
…
old_names = colnames(migrations[,2:ncol(migrations)])
new_names = as.character(unlist(migrations[1, 2:ncol(migrations)], use.names = FALSE))

migrations = migrations %>% rename_at(vars(old_names),~ new_names) %>% # change source column name
  drop_na() %>% filter(!target %in% c('United States2','Puerto Rico','Guam')) %>% 
  select(-c('Total', 'Puerto Rico', 'U.S. Island Area', 'Foreign Country')) %>% # remove aboard source and statistics
  gather(key='source', value='count' ,-target) # wide to long

migrations$count = migrations$count %>% as.numeric()
migrations = migrations[,c(2,1,3)]

migrations

## # A tibble: 2,601 x 3
##    source  target               count
##    <chr>   <chr>                <dbl>
##  1 Alabama Alabama                 NA
##  2 Alabama Alaska                 518
##  3 Alabama Arizona               2801
##  4 Alabama Arkansas               438
##  5 Alabama California            4591
##  6 Alabama Colorado              3597
##  7 Alabama Connecticut           1054
##  8 Alabama Delaware                39
##  9 Alabama District of Columbia   174
## 10 Alabama Florida              12870
## # ... with 2,591 more rows
…
